[
  {
    "name": "associate-module",
    "url": "https://gitlab.com/protopiahome-public/protopia-ecosystem/modules/associate-module"
  },
  {
    "name": "client-module",
    "url": "https://gitlab.com/protopiahome-public/protopia-ecosystem/modules/client-module"
  },
  {
    "name": "main-module",
    "url": "https://gitlab.com/protopiahome-public/protopia-ecosystem/modules/main-module"
  },
  {
    "name": "oauth-oid-module",
    "url": "https://gitlab.com/protopiahome-public/protopia-ecosystem/modules/oauth-oid-module"
  },
  {
    "name": "user-module",
    "url": "https://gitlab.com/protopiahome-public/protopia-ecosystem/modules/user-module"
  }
]